PCBNEW-LibModule-V1  Fri 15 Feb 2013 11:56:45 AM EST
# encoding utf-8
$INDEX
2Pin-HV
$EndINDEX
$MODULE 2Pin-HV
Po 0 0 0 15 511E68B6 00000000 ~~
Li 2Pin-HV
Sc 00000000
AR /50C0EFC3
Op 0 0 0
T0 0 1650 600 600 0 120 N V 21 N "PMT8"
T1 0 0 600 600 0 120 N I 21 N "CONN_2"
DS -3000 -1000 3000 -1000 150 21
DS 3000 -1000 3000 1000 150 21
DS 3000 1000 -3000 1000 150 21
DS -3000 1000 -3000 -1000 150 21
$PAD
Sh "1" C 700 700 0 0 0
Dr 400 0 0
At STD N 00E0FFFF
Ne 2 "N-000033"
Po -1969 0
.SolderMask 2000
.LocalClearance 2000
$EndPAD
$PAD
Sh "2" C 1575 1575 0 0 0
Dr 1181 0 0
At STD N 00E0FFFF
Ne 1 "GND"
Po 2000 0
$EndPAD
$EndMODULE  2Pin-HV
$EndLIBRARY
