PCBNEW-LibModule-V1  Fri 15 Feb 2013 11:58:50 AM EST
# encoding utf-8
$INDEX
HV_RAD_Cap
$EndINDEX
$MODULE HV_RAD_Cap
Po 0 0 0 15 511E693E 00000000 ~~
Li HV_RAD_Cap
Sc 00000000
AR /50BE6EA7
Op 0 0 0
T0 0 -1500 600 600 0 120 N V 21 N "C_HVF7"
T1 0 1650 600 600 0 120 N V 21 N "4.7nF"
DS -2550 1000 2500 1000 150 21
DS 2500 -1000 -2550 -1000 150 21
DS 2500 -1000 2500 1000 150 21
DS -2550 1000 -2550 -1000 150 21
$PAD
Sh "1" C 512 512 0 0 0
Dr 354 0 0
At STD N 00E0FFFF
Ne 1 "GND"
Po -1870 0
$EndPAD
$PAD
Sh "2" C 512 512 0 0 0
Dr 354 0 0
At STD N 00E0FFFF
Ne 2 "N-000023"
Po 1870 0
.SolderMask 2000
.LocalClearance 2000
$EndPAD
$EndMODULE  HV_RAD_Cap
$EndLIBRARY
