PCBNEW-LibModule-V1  Thu Nov 29 18:43:59 2012
# encoding utf-8
$INDEX
MCX
$EndINDEX
$MODULE MCX
Po 0 0 0 15 50B7F30A 50B7F2F4 ~~
Li MCX
Sc 50B7F2F4
AR MCX
Op 0 0 0
T0 -1550 50 600 600 0 120 N V 21 N "MCX"
T1 1800 0 600 600 0 120 N V 21 N "Val**"
DS -1200 1000 -2550 1000 150 21
DS -2550 1000 -2550 -1000 150 21
DS -2550 -1000 -1200 -1000 150 21
DS -1200 -1200 1200 -1200 150 21
DS 1200 -1200 1200 1200 150 21
DS 1200 1200 -1200 1200 150 21
DS -1200 1200 -1200 -1200 150 21
$PAD
Sh "2" C 1181 1181 0 0 0
Dr 472 0 0
At STD N 00E0FFFF
Ne 0 ""
Po -1000 -1000
$EndPAD
$PAD
Sh "2" C 1181 1181 0 0 0
Dr 472 0 0
At STD N 00E0FFFF
Ne 0 ""
Po 1000 -1000
$EndPAD
$PAD
Sh "2" C 1181 1181 0 0 0
Dr 472 0 0
At STD N 00E0FFFF
Ne 0 ""
Po 1000 1000
$EndPAD
$PAD
Sh "2" C 1181 1181 0 0 0
Dr 472 0 0
At STD N 00E0FFFF
Ne 0 ""
Po -1000 1000
$EndPAD
$PAD
Sh "1" C 1181 1181 0 0 0
Dr 472 0 0
At STD N 00E0FFFF
Ne 0 ""
Po 0 0
$EndPAD
$EndMODULE  MCX
$EndLIBRARY
