PCBNEW-LibModule-V1  Mon 11 Feb 2013 05:45:51 PM EST
# encoding utf-8
$INDEX
RJ45_8
$EndINDEX
$MODULE RJ45_8
Po 0 0 0 15 511973DF 51197342 ~~
Li RJ45_8
Kw RJ45
Sc 51197342
AR /5119694C
Op 0 0 0
T0 100 1900 600 600 0 120 N V 21 N "J1"
T1 56 -40 394 394 0 80 N V 21 N "RJ45"
DS -3000 3100 3000 3100 50 21
DS 3000 3100 3000 -4000 50 21
DS 3000 -4000 -3000 -4000 50 21
DS -3000 -4000 -3000 3100 50 21
$PAD
Sh "" C 1437 1437 0 0 0
Dr 1280 0 0
At HOLE N 00F0FFFF
Ne 0 ""
Po 2250 0
$EndPAD
$PAD
Sh "" C 1437 1437 0 0 0
Dr 1280 0 0
At HOLE N 00F0FFFF
Ne 0 ""
Po -2250 0
$EndPAD
$PAD
Sh "1" R 591 591 0 0 0
Dr 354 0 0
At STD N 00E0FFFF
Ne 4 "GND"
Po -1750 -2500
$EndPAD
$PAD
Sh "2" C 591 591 0 0 0
Dr 354 0 0
At STD N 00E0FFFF
Ne 3 "-6V"
Po -1250 -3500
$EndPAD
$PAD
Sh "3" C 591 591 0 0 0
Dr 354 0 0
At STD N 00E0FFFF
Ne 4 "GND"
Po -750 -2500
$EndPAD
$PAD
Sh "4" C 591 591 0 0 0
Dr 354 0 0
At STD N 00E0FFFF
Ne 1 "+1V"
Po -250 -3500
$EndPAD
$PAD
Sh "5" C 591 591 0 0 0
Dr 354 0 0
At STD N 00E0FFFF
Ne 4 "GND"
Po 250 -2500
$EndPAD
$PAD
Sh "6" C 591 591 0 0 0
Dr 354 0 0
At STD N 00E0FFFF
Ne 5 "N-000034"
Po 750 -3500
$EndPAD
$PAD
Sh "7" C 591 591 0 0 0
Dr 354 0 0
At STD N 00E0FFFF
Ne 4 "GND"
Po 1250 -2500
$EndPAD
$PAD
Sh "8" C 591 591 0 0 0
Dr 354 0 0
At STD N 00E0FFFF
Ne 2 "+3V"
Po 1750 -3500
$EndPAD
$SHAPE3D
Na "connectors/RJ45_8.wrl"
Sc 0.400000 0.400000 0.400000
Of 0.000000 0.000000 0.000000
Ro 0.000000 0.000000 0.000000
$EndSHAPE3D
$EndMODULE  RJ45_8
$EndLIBRARY
