PCBNEW-LibModule-V1  Fri 15 Feb 2013 11:17:40 AM EST
# encoding utf-8
$INDEX
SM1206_HV
$EndINDEX
$MODULE SM1206_HV
Po 0 0 0 15 511E5F7B 511E5F66 ~~
Li SM1206_HV
Sc 511E5F66
AR /50B66353
Op 0 0 0
At SMD 
T0 16 -787 300 300 0 50 N V 21 N "R_CL8"
T1 16 709 300 300 0 50 N I 21 N "100k"
DS -1000 -450 -1000 450 50 21
DS -1000 450 -350 450 50 21
DS 350 -450 1000 -450 50 21
DS 1000 -450 1000 450 50 21
DS 1000 450 350 450 50 21
DS -350 -450 -1000 -450 50 21
$PAD
Sh "1" R 600 800 0 0 0
Dr 0 0 0
At SMD N 00888000
Ne 2 "N-000033"
Po -650 0
.SolderMask 2000
$EndPAD
$PAD
Sh "2" R 600 800 0 0 0
Dr 0 0 0
At SMD N 00888000
Ne 1 "N-000005"
Po 650 0
.SolderMask 2000
$EndPAD
$SHAPE3D
Na "smd/chip_cms.wrl"
Sc 0.170000 0.160000 0.160000
Of 0.000000 0.000000 0.000000
Ro 0.000000 0.000000 0.000000
$EndSHAPE3D
$EndMODULE  SM1206_HV
$EndLIBRARY
