PCBNEW-LibModule-V1  Mon Feb 18 20:54:33 2013
# encoding utf-8
$INDEX
SM1812m
$EndINDEX
$MODULE SM1812m
Po 0 0 0 15 5122DB53 00000000 ~~
Li SM1812m
Kw CMS SM
Sc 00000000
AR /50B66354
Op 0 0 0
At SMD 
T0 -900 -2000 400 300 900 50 N V 21 N "C_HV8"
T1 -900 1700 400 300 900 50 N I 21 N "470pF"
DS -500 -2800 -500 2800 50 28
DS -500 2800 500 2800 50 28
DS 500 2800 500 -2800 50 28
DS 500 -2800 -500 -2800 50 28
DS 600 800 1250 800 50 21
DS 1250 800 1250 -800 50 21
DS 1250 -800 600 -800 50 21
DS -600 -800 -1250 -800 50 21
DS -1250 -800 -1250 800 50 21
DS -1250 800 -600 800 50 21
$PAD
Sh "1" R 550 1500 0 0 0
Dr 0 0 0
At SMD N 00888000
Ne 2 "N-000042"
Po -900 0
$EndPAD
$PAD
Sh "2" R 550 1500 0 0 0
Dr 0 0 0
At SMD N 00888000
Ne 1 "N-000033"
Po 900 0
$EndPAD
$PAD
Sh "" R 10 5500 0 0 0
Dr 0 0 0
At STD N 00C00000
Ne 0 ""
Po -450 0
.SolderMask 2050
.LocalClearance 2050
$EndPAD
$PAD
Sh "" R 890 10 0 0 0
Dr 0 0 0
At STD N 00C00000
Ne 0 ""
Po 0 -2750
.SolderMask 2050
.LocalClearance 2050
$EndPAD
$PAD
Sh "" R 890 10 0 0 0
Dr 0 0 0
At STD N 00C00000
Ne 0 ""
Po 0 2750
.SolderMask 2050
.LocalClearance 2050
$EndPAD
$PAD
Sh "" R 10 5500 0 0 0
Dr 0 0 0
At STD N 00C00000
Ne 0 ""
Po 450 0
.SolderMask 2050
.LocalClearance 2050
$EndPAD
$SHAPE3D
Na "smd/chip_cms.wrl"
Sc 0.210000 0.300000 0.200000
Of 0.000000 0.000000 0.000000
Ro 0.000000 0.000000 0.000000
$EndSHAPE3D
$EndMODULE  SM1812m
$EndLIBRARY
